-- Merging decision tree log ---
manifest
ADDED from /home/aliakbar/BelOS/davdroidWorking2/davdroid_v5/davdroid/app/src/main/AndroidManifest.xml:9:1-221:12
INJECTED from /home/aliakbar/BelOS/davdroidWorking2/davdroid_v5/davdroid/app/src/main/AndroidManifest.xml:9:1-221:12
INJECTED from /home/aliakbar/BelOS/davdroidWorking2/davdroid_v5/davdroid/app/src/main/AndroidManifest.xml:9:1-221:12
INJECTED from /home/aliakbar/BelOS/davdroidWorking2/davdroid_v5/davdroid/app/src/main/AndroidManifest.xml:9:1-221:12
MERGED from [:cert4android] /home/aliakbar/BelOS/davdroidWorking2/davdroid_v5/davdroid/cert4android/build/intermediates/manifests/full/debug/AndroidManifest.xml:2:1-20:12
MERGED from [:dav4android] /home/aliakbar/BelOS/davdroidWorking2/davdroid_v5/davdroid/dav4android/build/intermediates/manifests/full/debug/AndroidManifest.xml:9:1-20:12
MERGED from [:ical4android] /home/aliakbar/BelOS/davdroidWorking2/davdroid_v5/davdroid/ical4android/build/intermediates/manifests/full/debug/AndroidManifest.xml:13:1-27:12
MERGED from [:vcard4android] /home/aliakbar/BelOS/davdroidWorking2/davdroid_v5/davdroid/vcard4android/build/intermediates/manifests/full/debug/AndroidManifest.xml:9:1-23:12
MERGED from [com.android.support:design:27.0.1] /home/aliakbar/.gradle/caches/transforms-1/files-1.1/design-27.0.1.aar/0e852b3518eec821314a7faaceea3688/AndroidManifest.xml:17:1-22:12
MERGED from [com.android.support:preference-v14:27.0.1] /home/aliakbar/.gradle/caches/transforms-1/files-1.1/preference-v14-27.0.1.aar/ea0e5cb2db8d0556ad1db08228ef88f0/AndroidManifest.xml:17:1-22:12
MERGED from [com.android.support:preference-v7:27.0.1] /home/aliakbar/.gradle/caches/transforms-1/files-1.1/preference-v7-27.0.1.aar/9a32396306755f1f2daeb83eec8fd3e1/AndroidManifest.xml:17:1-22:12
MERGED from [com.android.support:appcompat-v7:27.0.1] /home/aliakbar/.gradle/caches/transforms-1/files-1.1/appcompat-v7-27.0.1.aar/f67fc3d8533f456b1529e5943d6f963e/AndroidManifest.xml:17:1-22:12
MERGED from [com.android.support:cardview-v7:27.0.1] /home/aliakbar/.gradle/caches/transforms-1/files-1.1/cardview-v7-27.0.1.aar/22a6c8c9f3776d81db17f75cdcd87f32/AndroidManifest.xml:17:1-22:12
MERGED from [com.github.yukuku:ambilwarna:2.0.1] /home/aliakbar/.gradle/caches/transforms-1/files-1.1/ambilwarna-2.0.1.aar/9168123006d29c447f246141ba7474a1/AndroidManifest.xml:2:1-12:12
MERGED from [com.android.support:support-v4:27.0.1] /home/aliakbar/.gradle/caches/transforms-1/files-1.1/support-v4-27.0.1.aar/cf07c27a8e637cb6ceeb1db90523925d/AndroidManifest.xml:17:1-22:12
MERGED from [com.android.support:support-fragment:27.0.1] /home/aliakbar/.gradle/caches/transforms-1/files-1.1/support-fragment-27.0.1.aar/611d69fdaa5ac358e0ee1e0ec24577d3/AndroidManifest.xml:17:1-22:12
MERGED from [com.android.support:support-core-utils:27.0.1] /home/aliakbar/.gradle/caches/transforms-1/files-1.1/support-core-utils-27.0.1.aar/373e1bd73d6381f7bb9f0bc1a3d2d60a/AndroidManifest.xml:17:1-22:12
MERGED from [com.android.support:animated-vector-drawable:27.0.1] /home/aliakbar/.gradle/caches/transforms-1/files-1.1/animated-vector-drawable-27.0.1.aar/ce331b65360e40a8590dc2e4d120595e/AndroidManifest.xml:17:1-22:12
MERGED from [com.android.support:support-vector-drawable:27.0.1] /home/aliakbar/.gradle/caches/transforms-1/files-1.1/support-vector-drawable-27.0.1.aar/e73202b54bf6787f559908e0ae775a77/AndroidManifest.xml:17:1-22:12
MERGED from [com.android.support:recyclerview-v7:27.0.1] /home/aliakbar/.gradle/caches/transforms-1/files-1.1/recyclerview-v7-27.0.1.aar/ed81a2739f3d2859938312fc98aa84e2/AndroidManifest.xml:17:1-22:12
MERGED from [com.android.support:transition:27.0.1] /home/aliakbar/.gradle/caches/transforms-1/files-1.1/transition-27.0.1.aar/230d0700a77f1d50653228a11c0cb411/AndroidManifest.xml:17:1-22:12
MERGED from [com.android.support:support-core-ui:27.0.1] /home/aliakbar/.gradle/caches/transforms-1/files-1.1/support-core-ui-27.0.1.aar/d6e33638fccaeead32328ea6a791e9f3/AndroidManifest.xml:17:1-22:12
MERGED from [com.android.support:support-media-compat:27.0.1] /home/aliakbar/.gradle/caches/transforms-1/files-1.1/support-media-compat-27.0.1.aar/db604c97761db6ea6713d138a31ede07/AndroidManifest.xml:17:1-22:12
MERGED from [com.android.support:support-compat:27.0.1] /home/aliakbar/.gradle/caches/transforms-1/files-1.1/support-compat-27.0.1.aar/c5b939523c5fb170aed5e0510f1e7803/AndroidManifest.xml:17:1-22:12
MERGED from [android.arch.lifecycle:runtime:1.0.0] /home/aliakbar/.gradle/caches/transforms-1/files-1.1/runtime-1.0.0.aar/366cba4fa03ba6a8ad6fc20759e3582d/AndroidManifest.xml:17:1-30:12
INJECTED from /home/aliakbar/BelOS/davdroidWorking2/davdroid_v5/davdroid/app/src/main/AndroidManifest.xml:9:1-221:12
INJECTED from /home/aliakbar/BelOS/davdroidWorking2/davdroid_v5/davdroid/app/src/main/AndroidManifest.xml:9:1-221:12
INJECTED from /home/aliakbar/BelOS/davdroidWorking2/davdroid_v5/davdroid/app/src/main/AndroidManifest.xml:9:1-221:12
	package
		ADDED from /home/aliakbar/BelOS/davdroidWorking2/davdroid_v5/davdroid/app/src/main/AndroidManifest.xml:9:11-39
		INJECTED from /home/aliakbar/BelOS/davdroidWorking2/davdroid_v5/davdroid/app/src/main/AndroidManifest.xml
		INJECTED from /home/aliakbar/BelOS/davdroidWorking2/davdroid_v5/davdroid/app/src/main/AndroidManifest.xml
	android:versionName
		INJECTED from /home/aliakbar/BelOS/davdroidWorking2/davdroid_v5/davdroid/app/src/main/AndroidManifest.xml
		ADDED from /home/aliakbar/BelOS/davdroidWorking2/davdroid_v5/davdroid/app/src/main/AndroidManifest.xml:9:1-221:12
		INJECTED from /home/aliakbar/BelOS/davdroidWorking2/davdroid_v5/davdroid/app/src/main/AndroidManifest.xml
	xmlns:tools
		ADDED from /home/aliakbar/BelOS/davdroidWorking2/davdroid_v5/davdroid/app/src/main/AndroidManifest.xml:11:11-57
	android:versionCode
		INJECTED from /home/aliakbar/BelOS/davdroidWorking2/davdroid_v5/davdroid/app/src/main/AndroidManifest.xml
		ADDED from /home/aliakbar/BelOS/davdroidWorking2/davdroid_v5/davdroid/app/src/main/AndroidManifest.xml:9:1-221:12
		INJECTED from /home/aliakbar/BelOS/davdroidWorking2/davdroid_v5/davdroid/app/src/main/AndroidManifest.xml
	xmlns:android
		ADDED from /home/aliakbar/BelOS/davdroidWorking2/davdroid_v5/davdroid/app/src/main/AndroidManifest.xml:10:11-69
	android:installLocation
		ADDED from /home/aliakbar/BelOS/davdroidWorking2/davdroid_v5/davdroid/app/src/main/AndroidManifest.xml:12:11-49
uses-permission#android.permission.ACCESS_NETWORK_STATE
ADDED from /home/aliakbar/BelOS/davdroidWorking2/davdroid_v5/davdroid/app/src/main/AndroidManifest.xml:15:5-78
	android:name
		ADDED from /home/aliakbar/BelOS/davdroidWorking2/davdroid_v5/davdroid/app/src/main/AndroidManifest.xml:15:22-76
uses-permission#android.permission.ACCESS_WIFI_STATE
ADDED from /home/aliakbar/BelOS/davdroidWorking2/davdroid_v5/davdroid/app/src/main/AndroidManifest.xml:16:5-75
	android:name
		ADDED from /home/aliakbar/BelOS/davdroidWorking2/davdroid_v5/davdroid/app/src/main/AndroidManifest.xml:16:22-73
uses-permission#android.permission.INTERNET
ADDED from /home/aliakbar/BelOS/davdroidWorking2/davdroid_v5/davdroid/app/src/main/AndroidManifest.xml:17:5-66
MERGED from [:dav4android] /home/aliakbar/BelOS/davdroidWorking2/davdroid_v5/davdroid/dav4android/build/intermediates/manifests/full/debug/AndroidManifest.xml:16:5-67
MERGED from [:dav4android] /home/aliakbar/BelOS/davdroidWorking2/davdroid_v5/davdroid/dav4android/build/intermediates/manifests/full/debug/AndroidManifest.xml:16:5-67
	android:name
		ADDED from /home/aliakbar/BelOS/davdroidWorking2/davdroid_v5/davdroid/app/src/main/AndroidManifest.xml:17:22-64
uses-permission#android.permission.READ_SYNC_SETTINGS
ADDED from /home/aliakbar/BelOS/davdroidWorking2/davdroid_v5/davdroid/app/src/main/AndroidManifest.xml:18:5-76
	android:name
		ADDED from /home/aliakbar/BelOS/davdroidWorking2/davdroid_v5/davdroid/app/src/main/AndroidManifest.xml:18:22-74
uses-permission#android.permission.READ_SYNC_STATS
ADDED from /home/aliakbar/BelOS/davdroidWorking2/davdroid_v5/davdroid/app/src/main/AndroidManifest.xml:19:5-73
	android:name
		ADDED from /home/aliakbar/BelOS/davdroidWorking2/davdroid_v5/davdroid/app/src/main/AndroidManifest.xml:19:22-71
uses-permission#android.permission.WRITE_SYNC_SETTINGS
ADDED from /home/aliakbar/BelOS/davdroidWorking2/davdroid_v5/davdroid/app/src/main/AndroidManifest.xml:20:5-77
	android:name
		ADDED from /home/aliakbar/BelOS/davdroidWorking2/davdroid_v5/davdroid/app/src/main/AndroidManifest.xml:20:22-75
uses-permission#android.permission.REQUEST_IGNORE_BATTERY_OPTIMIZATIONS
ADDED from /home/aliakbar/BelOS/davdroidWorking2/davdroid_v5/davdroid/app/src/main/AndroidManifest.xml:21:5-94
	android:name
		ADDED from /home/aliakbar/BelOS/davdroidWorking2/davdroid_v5/davdroid/app/src/main/AndroidManifest.xml:21:22-92
uses-permission#android.permission.AUTHENTICATE_ACCOUNTS
ADDED from /home/aliakbar/BelOS/davdroidWorking2/davdroid_v5/davdroid/app/src/main/AndroidManifest.xml:24:5-106
	android:maxSdkVersion
		ADDED from /home/aliakbar/BelOS/davdroidWorking2/davdroid_v5/davdroid/app/src/main/AndroidManifest.xml:24:78-104
	android:name
		ADDED from /home/aliakbar/BelOS/davdroidWorking2/davdroid_v5/davdroid/app/src/main/AndroidManifest.xml:24:22-77
uses-permission#android.permission.GET_ACCOUNTS
ADDED from /home/aliakbar/BelOS/davdroidWorking2/davdroid_v5/davdroid/app/src/main/AndroidManifest.xml:25:5-97
	android:maxSdkVersion
		ADDED from /home/aliakbar/BelOS/davdroidWorking2/davdroid_v5/davdroid/app/src/main/AndroidManifest.xml:25:69-95
	android:name
		ADDED from /home/aliakbar/BelOS/davdroidWorking2/davdroid_v5/davdroid/app/src/main/AndroidManifest.xml:25:22-68
uses-permission#android.permission.MANAGE_ACCOUNTS
ADDED from /home/aliakbar/BelOS/davdroidWorking2/davdroid_v5/davdroid/app/src/main/AndroidManifest.xml:26:5-100
	android:maxSdkVersion
		ADDED from /home/aliakbar/BelOS/davdroidWorking2/davdroid_v5/davdroid/app/src/main/AndroidManifest.xml:26:72-98
	android:name
		ADDED from /home/aliakbar/BelOS/davdroidWorking2/davdroid_v5/davdroid/app/src/main/AndroidManifest.xml:26:22-71
uses-permission#android.permission.READ_EXTERNAL_STORAGE
ADDED from /home/aliakbar/BelOS/davdroidWorking2/davdroid_v5/davdroid/app/src/main/AndroidManifest.xml:32:5-106
	android:maxSdkVersion
		ADDED from /home/aliakbar/BelOS/davdroidWorking2/davdroid_v5/davdroid/app/src/main/AndroidManifest.xml:32:78-104
	android:name
		ADDED from /home/aliakbar/BelOS/davdroidWorking2/davdroid_v5/davdroid/app/src/main/AndroidManifest.xml:32:22-77
uses-permission#android.permission.WRITE_EXTERNAL_STORAGE
ADDED from /home/aliakbar/BelOS/davdroidWorking2/davdroid_v5/davdroid/app/src/main/AndroidManifest.xml:33:5-107
	android:maxSdkVersion
		ADDED from /home/aliakbar/BelOS/davdroidWorking2/davdroid_v5/davdroid/app/src/main/AndroidManifest.xml:33:79-105
	android:name
		ADDED from /home/aliakbar/BelOS/davdroidWorking2/davdroid_v5/davdroid/app/src/main/AndroidManifest.xml:33:22-78
uses-permission#android.permission.READ_CONTACTS
ADDED from /home/aliakbar/BelOS/davdroidWorking2/davdroid_v5/davdroid/app/src/main/AndroidManifest.xml:37:5-71
MERGED from [:vcard4android] /home/aliakbar/BelOS/davdroidWorking2/davdroid_v5/davdroid/vcard4android/build/intermediates/manifests/full/debug/AndroidManifest.xml:16:5-72
MERGED from [:vcard4android] /home/aliakbar/BelOS/davdroidWorking2/davdroid_v5/davdroid/vcard4android/build/intermediates/manifests/full/debug/AndroidManifest.xml:16:5-72
	android:name
		ADDED from /home/aliakbar/BelOS/davdroidWorking2/davdroid_v5/davdroid/app/src/main/AndroidManifest.xml:37:22-69
uses-permission#android.permission.WRITE_CONTACTS
ADDED from /home/aliakbar/BelOS/davdroidWorking2/davdroid_v5/davdroid/app/src/main/AndroidManifest.xml:38:5-72
MERGED from [:vcard4android] /home/aliakbar/BelOS/davdroidWorking2/davdroid_v5/davdroid/vcard4android/build/intermediates/manifests/full/debug/AndroidManifest.xml:17:5-73
MERGED from [:vcard4android] /home/aliakbar/BelOS/davdroidWorking2/davdroid_v5/davdroid/vcard4android/build/intermediates/manifests/full/debug/AndroidManifest.xml:17:5-73
	android:name
		ADDED from /home/aliakbar/BelOS/davdroidWorking2/davdroid_v5/davdroid/app/src/main/AndroidManifest.xml:38:22-70
uses-permission#android.permission.READ_CALENDAR
ADDED from /home/aliakbar/BelOS/davdroidWorking2/davdroid_v5/davdroid/app/src/main/AndroidManifest.xml:40:5-71
MERGED from [:ical4android] /home/aliakbar/BelOS/davdroidWorking2/davdroid_v5/davdroid/ical4android/build/intermediates/manifests/full/debug/AndroidManifest.xml:20:5-72
MERGED from [:ical4android] /home/aliakbar/BelOS/davdroidWorking2/davdroid_v5/davdroid/ical4android/build/intermediates/manifests/full/debug/AndroidManifest.xml:20:5-72
	android:name
		ADDED from /home/aliakbar/BelOS/davdroidWorking2/davdroid_v5/davdroid/app/src/main/AndroidManifest.xml:40:22-69
uses-permission#android.permission.WRITE_CALENDAR
ADDED from /home/aliakbar/BelOS/davdroidWorking2/davdroid_v5/davdroid/app/src/main/AndroidManifest.xml:41:5-72
MERGED from [:ical4android] /home/aliakbar/BelOS/davdroidWorking2/davdroid_v5/davdroid/ical4android/build/intermediates/manifests/full/debug/AndroidManifest.xml:21:5-73
MERGED from [:ical4android] /home/aliakbar/BelOS/davdroidWorking2/davdroid_v5/davdroid/ical4android/build/intermediates/manifests/full/debug/AndroidManifest.xml:21:5-73
	android:name
		ADDED from /home/aliakbar/BelOS/davdroidWorking2/davdroid_v5/davdroid/app/src/main/AndroidManifest.xml:41:22-70
application
ADDED from /home/aliakbar/BelOS/davdroidWorking2/davdroid_v5/davdroid/app/src/main/AndroidManifest.xml:45:5-219:19
MERGED from [:cert4android] /home/aliakbar/BelOS/davdroidWorking2/davdroid_v5/davdroid/cert4android/build/intermediates/manifests/full/debug/AndroidManifest.xml:9:5-18:19
MERGED from [:cert4android] /home/aliakbar/BelOS/davdroidWorking2/davdroid_v5/davdroid/cert4android/build/intermediates/manifests/full/debug/AndroidManifest.xml:9:5-18:19
MERGED from [:dav4android] /home/aliakbar/BelOS/davdroidWorking2/davdroid_v5/davdroid/dav4android/build/intermediates/manifests/full/debug/AndroidManifest.xml:18:5-53
MERGED from [:dav4android] /home/aliakbar/BelOS/davdroidWorking2/davdroid_v5/davdroid/dav4android/build/intermediates/manifests/full/debug/AndroidManifest.xml:18:5-53
MERGED from [:ical4android] /home/aliakbar/BelOS/davdroidWorking2/davdroid_v5/davdroid/ical4android/build/intermediates/manifests/full/debug/AndroidManifest.xml:25:5-53
MERGED from [:ical4android] /home/aliakbar/BelOS/davdroidWorking2/davdroid_v5/davdroid/ical4android/build/intermediates/manifests/full/debug/AndroidManifest.xml:25:5-53
MERGED from [:vcard4android] /home/aliakbar/BelOS/davdroidWorking2/davdroid_v5/davdroid/vcard4android/build/intermediates/manifests/full/debug/AndroidManifest.xml:19:5-21:44
MERGED from [:vcard4android] /home/aliakbar/BelOS/davdroidWorking2/davdroid_v5/davdroid/vcard4android/build/intermediates/manifests/full/debug/AndroidManifest.xml:19:5-21:44
MERGED from [android.arch.lifecycle:runtime:1.0.0] /home/aliakbar/.gradle/caches/transforms-1/files-1.1/runtime-1.0.0.aar/366cba4fa03ba6a8ad6fc20759e3582d/AndroidManifest.xml:24:5-28:19
MERGED from [android.arch.lifecycle:runtime:1.0.0] /home/aliakbar/.gradle/caches/transforms-1/files-1.1/runtime-1.0.0.aar/366cba4fa03ba6a8ad6fc20759e3582d/AndroidManifest.xml:24:5-28:19
	android:label
		ADDED from /home/aliakbar/BelOS/davdroidWorking2/davdroid_v5/davdroid/app/src/main/AndroidManifest.xml:51:9-41
	android:fullBackupContent
		ADDED from /home/aliakbar/BelOS/davdroidWorking2/davdroid_v5/davdroid/app/src/main/AndroidManifest.xml:48:9-42
	tools:ignore
		ADDED from /home/aliakbar/BelOS/davdroidWorking2/davdroid_v5/davdroid/app/src/main/AndroidManifest.xml:53:9-39
	android:icon
		ADDED from /home/aliakbar/BelOS/davdroidWorking2/davdroid_v5/davdroid/app/src/main/AndroidManifest.xml:50:9-43
	android:allowBackup
		ADDED from /home/aliakbar/BelOS/davdroidWorking2/davdroid_v5/davdroid/app/src/main/AndroidManifest.xml:47:9-35
	android:theme
		ADDED from /home/aliakbar/BelOS/davdroidWorking2/davdroid_v5/davdroid/app/src/main/AndroidManifest.xml:52:9-40
	android:networkSecurityConfig
		ADDED from /home/aliakbar/BelOS/davdroidWorking2/davdroid_v5/davdroid/app/src/main/AndroidManifest.xml:49:9-69
	android:name
		ADDED from /home/aliakbar/BelOS/davdroidWorking2/davdroid_v5/davdroid/app/src/main/AndroidManifest.xml:46:9-28
service#org.belos.davdroid.DavService
ADDED from /home/aliakbar/BelOS/davdroidWorking2/davdroid_v5/davdroid/app/src/main/AndroidManifest.xml:55:9-46
	android:name
		ADDED from /home/aliakbar/BelOS/davdroidWorking2/davdroid_v5/davdroid/app/src/main/AndroidManifest.xml:55:18-44
service#org.belos.davdroid.settings.Settings
ADDED from /home/aliakbar/BelOS/davdroidWorking2/davdroid_v5/davdroid/app/src/main/AndroidManifest.xml:56:9-53
	android:name
		ADDED from /home/aliakbar/BelOS/davdroidWorking2/davdroid_v5/davdroid/app/src/main/AndroidManifest.xml:56:18-51
receiver#org.belos.davdroid.AccountsChangedReceiver
ADDED from /home/aliakbar/BelOS/davdroidWorking2/davdroid_v5/davdroid/app/src/main/AndroidManifest.xml:58:9-62:20
	android:name
		ADDED from /home/aliakbar/BelOS/davdroidWorking2/davdroid_v5/davdroid/app/src/main/AndroidManifest.xml:58:19-58
intent-filter#android.accounts.LOGIN_ACCOUNTS_CHANGED
ADDED from /home/aliakbar/BelOS/davdroidWorking2/davdroid_v5/davdroid/app/src/main/AndroidManifest.xml:59:13-61:29
action#android.accounts.LOGIN_ACCOUNTS_CHANGED
ADDED from /home/aliakbar/BelOS/davdroidWorking2/davdroid_v5/davdroid/app/src/main/AndroidManifest.xml:60:17-81
	android:name
		ADDED from /home/aliakbar/BelOS/davdroidWorking2/davdroid_v5/davdroid/app/src/main/AndroidManifest.xml:60:25-79
receiver#org.belos.davdroid.PackageChangedReceiver
ADDED from /home/aliakbar/BelOS/davdroidWorking2/davdroid_v5/davdroid/app/src/main/AndroidManifest.xml:64:9-70:20
	android:name
		ADDED from /home/aliakbar/BelOS/davdroidWorking2/davdroid_v5/davdroid/app/src/main/AndroidManifest.xml:64:19-57
intent-filter#android.intent.action.PACKAGE_ADDED+android.intent.action.PACKAGE_FULLY_REMOVED
ADDED from /home/aliakbar/BelOS/davdroidWorking2/davdroid_v5/davdroid/app/src/main/AndroidManifest.xml:65:13-69:29
action#android.intent.action.PACKAGE_ADDED
ADDED from /home/aliakbar/BelOS/davdroidWorking2/davdroid_v5/davdroid/app/src/main/AndroidManifest.xml:66:17-77
	android:name
		ADDED from /home/aliakbar/BelOS/davdroidWorking2/davdroid_v5/davdroid/app/src/main/AndroidManifest.xml:66:25-75
action#android.intent.action.PACKAGE_FULLY_REMOVED
ADDED from /home/aliakbar/BelOS/davdroidWorking2/davdroid_v5/davdroid/app/src/main/AndroidManifest.xml:67:17-85
	android:name
		ADDED from /home/aliakbar/BelOS/davdroidWorking2/davdroid_v5/davdroid/app/src/main/AndroidManifest.xml:67:25-83
data
ADDED from /home/aliakbar/BelOS/davdroidWorking2/davdroid_v5/davdroid/app/src/main/AndroidManifest.xml:68:17-49
	android:scheme
		ADDED from /home/aliakbar/BelOS/davdroidWorking2/davdroid_v5/davdroid/app/src/main/AndroidManifest.xml:68:23-47
activity#org.belos.davdroid.ui.AccountsActivity
ADDED from /home/aliakbar/BelOS/davdroidWorking2/davdroid_v5/davdroid/app/src/main/AndroidManifest.xml:72:9-80:20
	android:label
		ADDED from /home/aliakbar/BelOS/davdroidWorking2/davdroid_v5/davdroid/app/src/main/AndroidManifest.xml:74:13-45
	android:theme
		ADDED from /home/aliakbar/BelOS/davdroidWorking2/davdroid_v5/davdroid/app/src/main/AndroidManifest.xml:75:13-56
	android:name
		ADDED from /home/aliakbar/BelOS/davdroidWorking2/davdroid_v5/davdroid/app/src/main/AndroidManifest.xml:73:13-48
intent-filter#android.intent.action.MAIN+android.intent.category.LAUNCHER
ADDED from /home/aliakbar/BelOS/davdroidWorking2/davdroid_v5/davdroid/app/src/main/AndroidManifest.xml:76:13-79:29
action#android.intent.action.MAIN
ADDED from /home/aliakbar/BelOS/davdroidWorking2/davdroid_v5/davdroid/app/src/main/AndroidManifest.xml:77:17-68
	android:name
		ADDED from /home/aliakbar/BelOS/davdroidWorking2/davdroid_v5/davdroid/app/src/main/AndroidManifest.xml:77:25-66
category#android.intent.category.LAUNCHER
ADDED from /home/aliakbar/BelOS/davdroidWorking2/davdroid_v5/davdroid/app/src/main/AndroidManifest.xml:78:17-76
	android:name
		ADDED from /home/aliakbar/BelOS/davdroidWorking2/davdroid_v5/davdroid/app/src/main/AndroidManifest.xml:78:27-74
activity#org.belos.davdroid.ui.AboutActivity
ADDED from /home/aliakbar/BelOS/davdroidWorking2/davdroid_v5/davdroid/app/src/main/AndroidManifest.xml:82:9-86:64
	android:parentActivityName
		ADDED from /home/aliakbar/BelOS/davdroidWorking2/davdroid_v5/davdroid/app/src/main/AndroidManifest.xml:86:13-62
	android:label
		ADDED from /home/aliakbar/BelOS/davdroidWorking2/davdroid_v5/davdroid/app/src/main/AndroidManifest.xml:84:13-45
	android:theme
		ADDED from /home/aliakbar/BelOS/davdroidWorking2/davdroid_v5/davdroid/app/src/main/AndroidManifest.xml:85:13-56
	android:name
		ADDED from /home/aliakbar/BelOS/davdroidWorking2/davdroid_v5/davdroid/app/src/main/AndroidManifest.xml:83:13-45
activity#org.belos.davdroid.ui.AppSettingsActivity
ADDED from /home/aliakbar/BelOS/davdroidWorking2/davdroid_v5/davdroid/app/src/main/AndroidManifest.xml:88:9-91:64
	android:parentActivityName
		ADDED from /home/aliakbar/BelOS/davdroidWorking2/davdroid_v5/davdroid/app/src/main/AndroidManifest.xml:91:13-62
	android:label
		ADDED from /home/aliakbar/BelOS/davdroidWorking2/davdroid_v5/davdroid/app/src/main/AndroidManifest.xml:90:13-49
	android:name
		ADDED from /home/aliakbar/BelOS/davdroidWorking2/davdroid_v5/davdroid/app/src/main/AndroidManifest.xml:89:13-51
activity#org.belos.davdroid.ui.PermissionsActivity
ADDED from /home/aliakbar/BelOS/davdroidWorking2/davdroid_v5/davdroid/app/src/main/AndroidManifest.xml:93:9-95:70
	android:parentActivityName
		ADDED from /home/aliakbar/BelOS/davdroidWorking2/davdroid_v5/davdroid/app/src/main/AndroidManifest.xml:95:19-68
	android:label
		ADDED from /home/aliakbar/BelOS/davdroidWorking2/davdroid_v5/davdroid/app/src/main/AndroidManifest.xml:94:19-60
	android:name
		ADDED from /home/aliakbar/BelOS/davdroidWorking2/davdroid_v5/davdroid/app/src/main/AndroidManifest.xml:93:19-57
activity#org.belos.davdroid.ui.setup.LoginActivity
ADDED from /home/aliakbar/BelOS/davdroidWorking2/davdroid_v5/davdroid/app/src/main/AndroidManifest.xml:97:9-104:20
	android:parentActivityName
		ADDED from /home/aliakbar/BelOS/davdroidWorking2/davdroid_v5/davdroid/app/src/main/AndroidManifest.xml:100:13-62
	android:label
		ADDED from /home/aliakbar/BelOS/davdroidWorking2/davdroid_v5/davdroid/app/src/main/AndroidManifest.xml:99:13-48
	android:name
		ADDED from /home/aliakbar/BelOS/davdroidWorking2/davdroid_v5/davdroid/app/src/main/AndroidManifest.xml:98:13-51
intent-filter#android.intent.action.MAIN
ADDED from /home/aliakbar/BelOS/davdroidWorking2/davdroid_v5/davdroid/app/src/main/AndroidManifest.xml:101:13-103:29
activity#org.belos.davdroid.ui.AccountActivity
ADDED from /home/aliakbar/BelOS/davdroidWorking2/davdroid_v5/davdroid/app/src/main/AndroidManifest.xml:106:9-109:20
	android:parentActivityName
		ADDED from /home/aliakbar/BelOS/davdroidWorking2/davdroid_v5/davdroid/app/src/main/AndroidManifest.xml:108:13-62
	android:name
		ADDED from /home/aliakbar/BelOS/davdroidWorking2/davdroid_v5/davdroid/app/src/main/AndroidManifest.xml:107:13-47
activity#org.belos.davdroid.ui.AccountSettingsActivity
ADDED from /home/aliakbar/BelOS/davdroidWorking2/davdroid_v5/davdroid/app/src/main/AndroidManifest.xml:110:9-63
	android:name
		ADDED from /home/aliakbar/BelOS/davdroidWorking2/davdroid_v5/davdroid/app/src/main/AndroidManifest.xml:110:19-61
activity#org.belos.davdroid.ui.CreateAddressBookActivity
ADDED from /home/aliakbar/BelOS/davdroidWorking2/davdroid_v5/davdroid/app/src/main/AndroidManifest.xml:111:9-112:57
	android:label
		ADDED from /home/aliakbar/BelOS/davdroidWorking2/davdroid_v5/davdroid/app/src/main/AndroidManifest.xml:112:13-55
	android:name
		ADDED from /home/aliakbar/BelOS/davdroidWorking2/davdroid_v5/davdroid/app/src/main/AndroidManifest.xml:111:19-63
activity#org.belos.davdroid.ui.CreateCalendarActivity
ADDED from /home/aliakbar/BelOS/davdroidWorking2/davdroid_v5/davdroid/app/src/main/AndroidManifest.xml:113:9-114:60
	android:label
		ADDED from /home/aliakbar/BelOS/davdroidWorking2/davdroid_v5/davdroid/app/src/main/AndroidManifest.xml:114:19-58
	android:name
		ADDED from /home/aliakbar/BelOS/davdroidWorking2/davdroid_v5/davdroid/app/src/main/AndroidManifest.xml:113:19-60
activity#org.belos.davdroid.ui.DebugInfoActivity
ADDED from /home/aliakbar/BelOS/davdroidWorking2/davdroid_v5/davdroid/app/src/main/AndroidManifest.xml:116:9-121:20
	android:parentActivityName
		ADDED from /home/aliakbar/BelOS/davdroidWorking2/davdroid_v5/davdroid/app/src/main/AndroidManifest.xml:118:13-65
	android:label
		ADDED from /home/aliakbar/BelOS/davdroidWorking2/davdroid_v5/davdroid/app/src/main/AndroidManifest.xml:120:13-53
	android:exported
		ADDED from /home/aliakbar/BelOS/davdroidWorking2/davdroid_v5/davdroid/app/src/main/AndroidManifest.xml:119:13-36
	android:name
		ADDED from /home/aliakbar/BelOS/davdroidWorking2/davdroid_v5/davdroid/app/src/main/AndroidManifest.xml:117:13-49
provider#android.support.v4.content.FileProvider
ADDED from /home/aliakbar/BelOS/davdroidWorking2/davdroid_v5/davdroid/app/src/main/AndroidManifest.xml:122:9-130:20
	android:grantUriPermissions
		ADDED from /home/aliakbar/BelOS/davdroidWorking2/davdroid_v5/davdroid/app/src/main/AndroidManifest.xml:125:13-47
	android:authorities
		ADDED from /home/aliakbar/BelOS/davdroidWorking2/davdroid_v5/davdroid/app/src/main/AndroidManifest.xml:124:13-65
	android:exported
		ADDED from /home/aliakbar/BelOS/davdroidWorking2/davdroid_v5/davdroid/app/src/main/AndroidManifest.xml:126:13-37
	android:name
		ADDED from /home/aliakbar/BelOS/davdroidWorking2/davdroid_v5/davdroid/app/src/main/AndroidManifest.xml:123:13-67
meta-data#android.support.FILE_PROVIDER_PATHS
ADDED from /home/aliakbar/BelOS/davdroidWorking2/davdroid_v5/davdroid/app/src/main/AndroidManifest.xml:127:13-129:53
	android:resource
		ADDED from /home/aliakbar/BelOS/davdroidWorking2/davdroid_v5/davdroid/app/src/main/AndroidManifest.xml:129:17-50
	android:name
		ADDED from /home/aliakbar/BelOS/davdroidWorking2/davdroid_v5/davdroid/app/src/main/AndroidManifest.xml:128:17-67
service#org.belos.davdroid.syncadapter.AccountAuthenticatorService
ADDED from /home/aliakbar/BelOS/davdroidWorking2/davdroid_v5/davdroid/app/src/main/AndroidManifest.xml:133:9-143:19
	android:exported
		ADDED from /home/aliakbar/BelOS/davdroidWorking2/davdroid_v5/davdroid/app/src/main/AndroidManifest.xml:135:13-37
	android:name
		ADDED from /home/aliakbar/BelOS/davdroidWorking2/davdroid_v5/davdroid/app/src/main/AndroidManifest.xml:134:13-68
intent-filter#android.accounts.AccountAuthenticator
ADDED from /home/aliakbar/BelOS/davdroidWorking2/davdroid_v5/davdroid/app/src/main/AndroidManifest.xml:136:13-138:29
action#android.accounts.AccountAuthenticator
ADDED from /home/aliakbar/BelOS/davdroidWorking2/davdroid_v5/davdroid/app/src/main/AndroidManifest.xml:137:17-79
	android:name
		ADDED from /home/aliakbar/BelOS/davdroidWorking2/davdroid_v5/davdroid/app/src/main/AndroidManifest.xml:137:25-77
meta-data#android.accounts.AccountAuthenticator
ADDED from /home/aliakbar/BelOS/davdroidWorking2/davdroid_v5/davdroid/app/src/main/AndroidManifest.xml:140:13-142:64
	android:resource
		ADDED from /home/aliakbar/BelOS/davdroidWorking2/davdroid_v5/davdroid/app/src/main/AndroidManifest.xml:142:17-62
	android:name
		ADDED from /home/aliakbar/BelOS/davdroidWorking2/davdroid_v5/davdroid/app/src/main/AndroidManifest.xml:141:17-69
service#org.belos.davdroid.syncadapter.CalendarsSyncAdapterService
ADDED from /home/aliakbar/BelOS/davdroidWorking2/davdroid_v5/davdroid/app/src/main/AndroidManifest.xml:144:9-156:19
	android:process
		ADDED from /home/aliakbar/BelOS/davdroidWorking2/davdroid_v5/davdroid/app/src/main/AndroidManifest.xml:147:13-36
	android:exported
		ADDED from /home/aliakbar/BelOS/davdroidWorking2/davdroid_v5/davdroid/app/src/main/AndroidManifest.xml:146:13-36
	tools:ignore
		ADDED from /home/aliakbar/BelOS/davdroidWorking2/davdroid_v5/davdroid/app/src/main/AndroidManifest.xml:148:13-43
	android:name
		ADDED from /home/aliakbar/BelOS/davdroidWorking2/davdroid_v5/davdroid/app/src/main/AndroidManifest.xml:145:13-68
intent-filter#android.content.SyncAdapter
ADDED from /home/aliakbar/BelOS/davdroidWorking2/davdroid_v5/davdroid/app/src/main/AndroidManifest.xml:149:13-151:29
action#android.content.SyncAdapter
ADDED from /home/aliakbar/BelOS/davdroidWorking2/davdroid_v5/davdroid/app/src/main/AndroidManifest.xml:150:17-69
	android:name
		ADDED from /home/aliakbar/BelOS/davdroidWorking2/davdroid_v5/davdroid/app/src/main/AndroidManifest.xml:150:25-67
meta-data#android.content.SyncAdapter
ADDED from /home/aliakbar/BelOS/davdroidWorking2/davdroid_v5/davdroid/app/src/main/AndroidManifest.xml:153:13-155:57
	android:resource
		ADDED from /home/aliakbar/BelOS/davdroidWorking2/davdroid_v5/davdroid/app/src/main/AndroidManifest.xml:155:17-55
	android:name
		ADDED from /home/aliakbar/BelOS/davdroidWorking2/davdroid_v5/davdroid/app/src/main/AndroidManifest.xml:154:17-59
service#org.belos.davdroid.syncadapter.TasksSyncAdapterService
ADDED from /home/aliakbar/BelOS/davdroidWorking2/davdroid_v5/davdroid/app/src/main/AndroidManifest.xml:157:9-169:19
	android:process
		ADDED from /home/aliakbar/BelOS/davdroidWorking2/davdroid_v5/davdroid/app/src/main/AndroidManifest.xml:160:13-36
	android:exported
		ADDED from /home/aliakbar/BelOS/davdroidWorking2/davdroid_v5/davdroid/app/src/main/AndroidManifest.xml:159:13-36
	tools:ignore
		ADDED from /home/aliakbar/BelOS/davdroidWorking2/davdroid_v5/davdroid/app/src/main/AndroidManifest.xml:161:13-43
	android:name
		ADDED from /home/aliakbar/BelOS/davdroidWorking2/davdroid_v5/davdroid/app/src/main/AndroidManifest.xml:158:13-64
service#org.belos.davdroid.syncadapter.NullAuthenticatorService
ADDED from /home/aliakbar/BelOS/davdroidWorking2/davdroid_v5/davdroid/app/src/main/AndroidManifest.xml:172:9-182:19
	android:exported
		ADDED from /home/aliakbar/BelOS/davdroidWorking2/davdroid_v5/davdroid/app/src/main/AndroidManifest.xml:174:13-37
	android:name
		ADDED from /home/aliakbar/BelOS/davdroidWorking2/davdroid_v5/davdroid/app/src/main/AndroidManifest.xml:173:13-65
provider#org.belos.davdroid.syncadapter.AddressBookProvider
ADDED from /home/aliakbar/BelOS/davdroidWorking2/davdroid_v5/davdroid/app/src/main/AndroidManifest.xml:183:9-188:43
	android:authorities
		ADDED from /home/aliakbar/BelOS/davdroidWorking2/davdroid_v5/davdroid/app/src/main/AndroidManifest.xml:184:13-66
	android:label
		ADDED from /home/aliakbar/BelOS/davdroidWorking2/davdroid_v5/davdroid/app/src/main/AndroidManifest.xml:186:13-66
	android:multiprocess
		ADDED from /home/aliakbar/BelOS/davdroidWorking2/davdroid_v5/davdroid/app/src/main/AndroidManifest.xml:188:13-41
	android:exported
		ADDED from /home/aliakbar/BelOS/davdroidWorking2/davdroid_v5/davdroid/app/src/main/AndroidManifest.xml:185:13-37
	android:name
		ADDED from /home/aliakbar/BelOS/davdroidWorking2/davdroid_v5/davdroid/app/src/main/AndroidManifest.xml:187:13-60
service#org.belos.davdroid.syncadapter.AddressBooksSyncAdapterService
ADDED from /home/aliakbar/BelOS/davdroidWorking2/davdroid_v5/davdroid/app/src/main/AndroidManifest.xml:189:9-201:19
	android:process
		ADDED from /home/aliakbar/BelOS/davdroidWorking2/davdroid_v5/davdroid/app/src/main/AndroidManifest.xml:192:13-36
	android:exported
		ADDED from /home/aliakbar/BelOS/davdroidWorking2/davdroid_v5/davdroid/app/src/main/AndroidManifest.xml:191:13-36
	tools:ignore
		ADDED from /home/aliakbar/BelOS/davdroidWorking2/davdroid_v5/davdroid/app/src/main/AndroidManifest.xml:193:13-43
	android:name
		ADDED from /home/aliakbar/BelOS/davdroidWorking2/davdroid_v5/davdroid/app/src/main/AndroidManifest.xml:190:13-71
service#org.belos.davdroid.syncadapter.ContactsSyncAdapterService
ADDED from /home/aliakbar/BelOS/davdroidWorking2/davdroid_v5/davdroid/app/src/main/AndroidManifest.xml:202:9-217:19
	android:process
		ADDED from /home/aliakbar/BelOS/davdroidWorking2/davdroid_v5/davdroid/app/src/main/AndroidManifest.xml:205:13-36
	android:exported
		ADDED from /home/aliakbar/BelOS/davdroidWorking2/davdroid_v5/davdroid/app/src/main/AndroidManifest.xml:204:13-36
	tools:ignore
		ADDED from /home/aliakbar/BelOS/davdroidWorking2/davdroid_v5/davdroid/app/src/main/AndroidManifest.xml:206:13-43
	android:name
		ADDED from /home/aliakbar/BelOS/davdroidWorking2/davdroid_v5/davdroid/app/src/main/AndroidManifest.xml:203:13-67
meta-data#android.provider.CONTACTS_STRUCTURE
ADDED from /home/aliakbar/BelOS/davdroidWorking2/davdroid_v5/davdroid/app/src/main/AndroidManifest.xml:214:13-216:51
	android:resource
		ADDED from /home/aliakbar/BelOS/davdroidWorking2/davdroid_v5/davdroid/app/src/main/AndroidManifest.xml:216:17-49
	android:name
		ADDED from /home/aliakbar/BelOS/davdroidWorking2/davdroid_v5/davdroid/app/src/main/AndroidManifest.xml:215:17-67
uses-sdk
INJECTED from /home/aliakbar/BelOS/davdroidWorking2/davdroid_v5/davdroid/app/src/main/AndroidManifest.xml reason: use-sdk injection requested
INJECTED from /home/aliakbar/BelOS/davdroidWorking2/davdroid_v5/davdroid/app/src/main/AndroidManifest.xml
INJECTED from /home/aliakbar/BelOS/davdroidWorking2/davdroid_v5/davdroid/app/src/main/AndroidManifest.xml
MERGED from [:cert4android] /home/aliakbar/BelOS/davdroidWorking2/davdroid_v5/davdroid/cert4android/build/intermediates/manifests/full/debug/AndroidManifest.xml:5:5-7:41
MERGED from [:cert4android] /home/aliakbar/BelOS/davdroidWorking2/davdroid_v5/davdroid/cert4android/build/intermediates/manifests/full/debug/AndroidManifest.xml:5:5-7:41
MERGED from [:dav4android] /home/aliakbar/BelOS/davdroidWorking2/davdroid_v5/davdroid/dav4android/build/intermediates/manifests/full/debug/AndroidManifest.xml:12:5-14:41
MERGED from [:dav4android] /home/aliakbar/BelOS/davdroidWorking2/davdroid_v5/davdroid/dav4android/build/intermediates/manifests/full/debug/AndroidManifest.xml:12:5-14:41
MERGED from [:ical4android] /home/aliakbar/BelOS/davdroidWorking2/davdroid_v5/davdroid/ical4android/build/intermediates/manifests/full/debug/AndroidManifest.xml:16:5-18:41
MERGED from [:ical4android] /home/aliakbar/BelOS/davdroidWorking2/davdroid_v5/davdroid/ical4android/build/intermediates/manifests/full/debug/AndroidManifest.xml:16:5-18:41
MERGED from [:vcard4android] /home/aliakbar/BelOS/davdroidWorking2/davdroid_v5/davdroid/vcard4android/build/intermediates/manifests/full/debug/AndroidManifest.xml:12:5-14:41
MERGED from [:vcard4android] /home/aliakbar/BelOS/davdroidWorking2/davdroid_v5/davdroid/vcard4android/build/intermediates/manifests/full/debug/AndroidManifest.xml:12:5-14:41
MERGED from [com.android.support:design:27.0.1] /home/aliakbar/.gradle/caches/transforms-1/files-1.1/design-27.0.1.aar/0e852b3518eec821314a7faaceea3688/AndroidManifest.xml:20:5-44
MERGED from [com.android.support:design:27.0.1] /home/aliakbar/.gradle/caches/transforms-1/files-1.1/design-27.0.1.aar/0e852b3518eec821314a7faaceea3688/AndroidManifest.xml:20:5-44
MERGED from [com.android.support:preference-v14:27.0.1] /home/aliakbar/.gradle/caches/transforms-1/files-1.1/preference-v14-27.0.1.aar/ea0e5cb2db8d0556ad1db08228ef88f0/AndroidManifest.xml:20:5-44
MERGED from [com.android.support:preference-v14:27.0.1] /home/aliakbar/.gradle/caches/transforms-1/files-1.1/preference-v14-27.0.1.aar/ea0e5cb2db8d0556ad1db08228ef88f0/AndroidManifest.xml:20:5-44
MERGED from [com.android.support:preference-v7:27.0.1] /home/aliakbar/.gradle/caches/transforms-1/files-1.1/preference-v7-27.0.1.aar/9a32396306755f1f2daeb83eec8fd3e1/AndroidManifest.xml:20:5-44
MERGED from [com.android.support:preference-v7:27.0.1] /home/aliakbar/.gradle/caches/transforms-1/files-1.1/preference-v7-27.0.1.aar/9a32396306755f1f2daeb83eec8fd3e1/AndroidManifest.xml:20:5-44
MERGED from [com.android.support:appcompat-v7:27.0.1] /home/aliakbar/.gradle/caches/transforms-1/files-1.1/appcompat-v7-27.0.1.aar/f67fc3d8533f456b1529e5943d6f963e/AndroidManifest.xml:20:5-44
MERGED from [com.android.support:appcompat-v7:27.0.1] /home/aliakbar/.gradle/caches/transforms-1/files-1.1/appcompat-v7-27.0.1.aar/f67fc3d8533f456b1529e5943d6f963e/AndroidManifest.xml:20:5-44
MERGED from [com.android.support:cardview-v7:27.0.1] /home/aliakbar/.gradle/caches/transforms-1/files-1.1/cardview-v7-27.0.1.aar/22a6c8c9f3776d81db17f75cdcd87f32/AndroidManifest.xml:20:5-44
MERGED from [com.android.support:cardview-v7:27.0.1] /home/aliakbar/.gradle/caches/transforms-1/files-1.1/cardview-v7-27.0.1.aar/22a6c8c9f3776d81db17f75cdcd87f32/AndroidManifest.xml:20:5-44
MERGED from [com.github.yukuku:ambilwarna:2.0.1] /home/aliakbar/.gradle/caches/transforms-1/files-1.1/ambilwarna-2.0.1.aar/9168123006d29c447f246141ba7474a1/AndroidManifest.xml:8:5-10:41
MERGED from [com.github.yukuku:ambilwarna:2.0.1] /home/aliakbar/.gradle/caches/transforms-1/files-1.1/ambilwarna-2.0.1.aar/9168123006d29c447f246141ba7474a1/AndroidManifest.xml:8:5-10:41
MERGED from [com.android.support:support-v4:27.0.1] /home/aliakbar/.gradle/caches/transforms-1/files-1.1/support-v4-27.0.1.aar/cf07c27a8e637cb6ceeb1db90523925d/AndroidManifest.xml:20:5-44
MERGED from [com.android.support:support-v4:27.0.1] /home/aliakbar/.gradle/caches/transforms-1/files-1.1/support-v4-27.0.1.aar/cf07c27a8e637cb6ceeb1db90523925d/AndroidManifest.xml:20:5-44
MERGED from [com.android.support:support-fragment:27.0.1] /home/aliakbar/.gradle/caches/transforms-1/files-1.1/support-fragment-27.0.1.aar/611d69fdaa5ac358e0ee1e0ec24577d3/AndroidManifest.xml:20:5-44
MERGED from [com.android.support:support-fragment:27.0.1] /home/aliakbar/.gradle/caches/transforms-1/files-1.1/support-fragment-27.0.1.aar/611d69fdaa5ac358e0ee1e0ec24577d3/AndroidManifest.xml:20:5-44
MERGED from [com.android.support:support-core-utils:27.0.1] /home/aliakbar/.gradle/caches/transforms-1/files-1.1/support-core-utils-27.0.1.aar/373e1bd73d6381f7bb9f0bc1a3d2d60a/AndroidManifest.xml:20:5-44
MERGED from [com.android.support:support-core-utils:27.0.1] /home/aliakbar/.gradle/caches/transforms-1/files-1.1/support-core-utils-27.0.1.aar/373e1bd73d6381f7bb9f0bc1a3d2d60a/AndroidManifest.xml:20:5-44
MERGED from [com.android.support:animated-vector-drawable:27.0.1] /home/aliakbar/.gradle/caches/transforms-1/files-1.1/animated-vector-drawable-27.0.1.aar/ce331b65360e40a8590dc2e4d120595e/AndroidManifest.xml:20:5-44
MERGED from [com.android.support:animated-vector-drawable:27.0.1] /home/aliakbar/.gradle/caches/transforms-1/files-1.1/animated-vector-drawable-27.0.1.aar/ce331b65360e40a8590dc2e4d120595e/AndroidManifest.xml:20:5-44
MERGED from [com.android.support:support-vector-drawable:27.0.1] /home/aliakbar/.gradle/caches/transforms-1/files-1.1/support-vector-drawable-27.0.1.aar/e73202b54bf6787f559908e0ae775a77/AndroidManifest.xml:20:5-44
MERGED from [com.android.support:support-vector-drawable:27.0.1] /home/aliakbar/.gradle/caches/transforms-1/files-1.1/support-vector-drawable-27.0.1.aar/e73202b54bf6787f559908e0ae775a77/AndroidManifest.xml:20:5-44
MERGED from [com.android.support:recyclerview-v7:27.0.1] /home/aliakbar/.gradle/caches/transforms-1/files-1.1/recyclerview-v7-27.0.1.aar/ed81a2739f3d2859938312fc98aa84e2/AndroidManifest.xml:20:5-44
MERGED from [com.android.support:recyclerview-v7:27.0.1] /home/aliakbar/.gradle/caches/transforms-1/files-1.1/recyclerview-v7-27.0.1.aar/ed81a2739f3d2859938312fc98aa84e2/AndroidManifest.xml:20:5-44
MERGED from [com.android.support:transition:27.0.1] /home/aliakbar/.gradle/caches/transforms-1/files-1.1/transition-27.0.1.aar/230d0700a77f1d50653228a11c0cb411/AndroidManifest.xml:20:5-44
MERGED from [com.android.support:transition:27.0.1] /home/aliakbar/.gradle/caches/transforms-1/files-1.1/transition-27.0.1.aar/230d0700a77f1d50653228a11c0cb411/AndroidManifest.xml:20:5-44
MERGED from [com.android.support:support-core-ui:27.0.1] /home/aliakbar/.gradle/caches/transforms-1/files-1.1/support-core-ui-27.0.1.aar/d6e33638fccaeead32328ea6a791e9f3/AndroidManifest.xml:20:5-44
MERGED from [com.android.support:support-core-ui:27.0.1] /home/aliakbar/.gradle/caches/transforms-1/files-1.1/support-core-ui-27.0.1.aar/d6e33638fccaeead32328ea6a791e9f3/AndroidManifest.xml:20:5-44
MERGED from [com.android.support:support-media-compat:27.0.1] /home/aliakbar/.gradle/caches/transforms-1/files-1.1/support-media-compat-27.0.1.aar/db604c97761db6ea6713d138a31ede07/AndroidManifest.xml:20:5-44
MERGED from [com.android.support:support-media-compat:27.0.1] /home/aliakbar/.gradle/caches/transforms-1/files-1.1/support-media-compat-27.0.1.aar/db604c97761db6ea6713d138a31ede07/AndroidManifest.xml:20:5-44
MERGED from [com.android.support:support-compat:27.0.1] /home/aliakbar/.gradle/caches/transforms-1/files-1.1/support-compat-27.0.1.aar/c5b939523c5fb170aed5e0510f1e7803/AndroidManifest.xml:20:5-44
MERGED from [com.android.support:support-compat:27.0.1] /home/aliakbar/.gradle/caches/transforms-1/files-1.1/support-compat-27.0.1.aar/c5b939523c5fb170aed5e0510f1e7803/AndroidManifest.xml:20:5-44
MERGED from [android.arch.lifecycle:runtime:1.0.0] /home/aliakbar/.gradle/caches/transforms-1/files-1.1/runtime-1.0.0.aar/366cba4fa03ba6a8ad6fc20759e3582d/AndroidManifest.xml:20:5-22:41
MERGED from [android.arch.lifecycle:runtime:1.0.0] /home/aliakbar/.gradle/caches/transforms-1/files-1.1/runtime-1.0.0.aar/366cba4fa03ba6a8ad6fc20759e3582d/AndroidManifest.xml:20:5-22:41
INJECTED from /home/aliakbar/BelOS/davdroidWorking2/davdroid_v5/davdroid/app/src/main/AndroidManifest.xml
INJECTED from /home/aliakbar/BelOS/davdroidWorking2/davdroid_v5/davdroid/app/src/main/AndroidManifest.xml
	android:targetSdkVersion
		INJECTED from /home/aliakbar/BelOS/davdroidWorking2/davdroid_v5/davdroid/app/src/main/AndroidManifest.xml
		ADDED from /home/aliakbar/BelOS/davdroidWorking2/davdroid_v5/davdroid/app/src/main/AndroidManifest.xml
		INJECTED from /home/aliakbar/BelOS/davdroidWorking2/davdroid_v5/davdroid/app/src/main/AndroidManifest.xml
	android:minSdkVersion
		INJECTED from /home/aliakbar/BelOS/davdroidWorking2/davdroid_v5/davdroid/app/src/main/AndroidManifest.xml
		ADDED from /home/aliakbar/BelOS/davdroidWorking2/davdroid_v5/davdroid/app/src/main/AndroidManifest.xml
		INJECTED from /home/aliakbar/BelOS/davdroidWorking2/davdroid_v5/davdroid/app/src/main/AndroidManifest.xml
service#at.bitfire.cert4android.CustomCertService
ADDED from [:cert4android] /home/aliakbar/BelOS/davdroidWorking2/davdroid_v5/davdroid/cert4android/build/intermediates/manifests/full/debug/AndroidManifest.xml:10:9-77
	android:name
		ADDED from [:cert4android] /home/aliakbar/BelOS/davdroidWorking2/davdroid_v5/davdroid/cert4android/build/intermediates/manifests/full/debug/AndroidManifest.xml:10:18-74
activity#at.bitfire.cert4android.TrustCertificateActivity
ADDED from [:cert4android] /home/aliakbar/BelOS/davdroidWorking2/davdroid_v5/davdroid/cert4android/build/intermediates/manifests/full/debug/AndroidManifest.xml:12:9-17:51
	android:label
		ADDED from [:cert4android] /home/aliakbar/BelOS/davdroidWorking2/davdroid_v5/davdroid/cert4android/build/intermediates/manifests/full/debug/AndroidManifest.xml:16:13-81
	android:excludeFromRecents
		ADDED from [:cert4android] /home/aliakbar/BelOS/davdroidWorking2/davdroid_v5/davdroid/cert4android/build/intermediates/manifests/full/debug/AndroidManifest.xml:14:13-46
	android:launchMode
		ADDED from [:cert4android] /home/aliakbar/BelOS/davdroidWorking2/davdroid_v5/davdroid/cert4android/build/intermediates/manifests/full/debug/AndroidManifest.xml:17:13-48
	android:exported
		ADDED from [:cert4android] /home/aliakbar/BelOS/davdroidWorking2/davdroid_v5/davdroid/cert4android/build/intermediates/manifests/full/debug/AndroidManifest.xml:15:13-36
	android:name
		ADDED from [:cert4android] /home/aliakbar/BelOS/davdroidWorking2/davdroid_v5/davdroid/cert4android/build/intermediates/manifests/full/debug/AndroidManifest.xml:13:13-76
uses-permission#org.dmfs.permission.READ_TASKS
ADDED from [:ical4android] /home/aliakbar/BelOS/davdroidWorking2/davdroid_v5/davdroid/ical4android/build/intermediates/manifests/full/debug/AndroidManifest.xml:22:5-70
	android:name
		ADDED from [:ical4android] /home/aliakbar/BelOS/davdroidWorking2/davdroid_v5/davdroid/ical4android/build/intermediates/manifests/full/debug/AndroidManifest.xml:22:22-67
uses-permission#org.dmfs.permission.WRITE_TASKS
ADDED from [:ical4android] /home/aliakbar/BelOS/davdroidWorking2/davdroid_v5/davdroid/ical4android/build/intermediates/manifests/full/debug/AndroidManifest.xml:23:5-71
	android:name
		ADDED from [:ical4android] /home/aliakbar/BelOS/davdroidWorking2/davdroid_v5/davdroid/ical4android/build/intermediates/manifests/full/debug/AndroidManifest.xml:23:22-68
meta-data#android.arch.lifecycle.VERSION
ADDED from [android.arch.lifecycle:runtime:1.0.0] /home/aliakbar/.gradle/caches/transforms-1/files-1.1/runtime-1.0.0.aar/366cba4fa03ba6a8ad6fc20759e3582d/AndroidManifest.xml:25:9-27:47
	android:value
		ADDED from [android.arch.lifecycle:runtime:1.0.0] /home/aliakbar/.gradle/caches/transforms-1/files-1.1/runtime-1.0.0.aar/366cba4fa03ba6a8ad6fc20759e3582d/AndroidManifest.xml:27:13-44
	android:name
		ADDED from [android.arch.lifecycle:runtime:1.0.0] /home/aliakbar/.gradle/caches/transforms-1/files-1.1/runtime-1.0.0.aar/366cba4fa03ba6a8ad6fc20759e3582d/AndroidManifest.xml:26:13-58
